^C:\USERS\KHALID\DOCUMENTS\VISUAL STUDIO 2017\PROJECTS\GAT420\LAB01\STDAFX.CPP
C:\USERS\KHALID\DOCUMENTS\VISUAL STUDIO 2017\PROJECTS\GAT420\LAB01\RELEASE\LAB01.PCH
C:\USERS\KHALID\DOCUMENTS\VISUAL STUDIO 2017\PROJECTS\GAT420\LAB01\RELEASE\VC141.PDB
C:\USERS\KHALID\DOCUMENTS\VISUAL STUDIO 2017\PROJECTS\GAT420\LAB01\RELEASE\STDAFX.OBJ
^C:\USERS\KHALID\DOCUMENTS\VISUAL STUDIO 2017\PROJECTS\GAT420\LAB01\HASHFUNCTION.CPP|C:\USERS\KHALID\DOCUMENTS\VISUAL STUDIO 2017\PROJECTS\GAT420\LAB01\LAB01.CPP
C:\USERS\KHALID\DOCUMENTS\VISUAL STUDIO 2017\PROJECTS\GAT420\LAB01\RELEASE\VC141.PDB
C:\USERS\KHALID\DOCUMENTS\VISUAL STUDIO 2017\PROJECTS\GAT420\LAB01\RELEASE\LAB01.OBJ
C:\USERS\KHALID\DOCUMENTS\VISUAL STUDIO 2017\PROJECTS\GAT420\LAB01\RELEASE\HASHFUNCTION.OBJ
^C:\USERS\KHALID\DOCUMENTS\VISUAL STUDIO 2017\PROJECTS\GAT420\LAB01\HASHFUNCTION.CPP
C:\USERS\KHALID\DOCUMENTS\VISUAL STUDIO 2017\PROJECTS\GAT420\LAB01\RELEASE\VC141.PDB
C:\USERS\KHALID\DOCUMENTS\VISUAL STUDIO 2017\PROJECTS\GAT420\LAB01\RELEASE\HASHFUNCTION.OBJ
^C:\USERS\KHALID\DOCUMENTS\VISUAL STUDIO 2017\PROJECTS\GAT420\LAB01\LAB01.CPP|C:\USERS\KHALID\DOCUMENTS\VISUAL STUDIO 2017\PROJECTS\GAT420\LAB01\SHA2.CPP
C:\USERS\KHALID\DOCUMENTS\VISUAL STUDIO 2017\PROJECTS\GAT420\LAB01\RELEASE\VC141.PDB
C:\USERS\KHALID\DOCUMENTS\VISUAL STUDIO 2017\PROJECTS\GAT420\LAB01\RELEASE\SHA2.OBJ
C:\USERS\KHALID\DOCUMENTS\VISUAL STUDIO 2017\PROJECTS\GAT420\LAB01\RELEASE\LAB01.OBJ
^C:\USERS\KHALID\DOCUMENTS\VISUAL STUDIO 2017\PROJECTS\GAT420\LAB01\LAB01.CPP
C:\USERS\KHALID\DOCUMENTS\VISUAL STUDIO 2017\PROJECTS\GAT420\LAB01\RELEASE\VC141.PDB
^C:\USERS\KHALID\DOCUMENTS\VISUAL STUDIO 2017\PROJECTS\GAT420\LAB01\SHA2.CPP
C:\USERS\KHALID\DOCUMENTS\VISUAL STUDIO 2017\PROJECTS\GAT420\LAB01\RELEASE\VC141.PDB
